{
    "version": {
        "major": 4,
        "minor": 0
    },
    "checkouts": [
        {
            "id": "bkr2kcidb:checkout_1",
            "origin": "bkr2kcidb",
            "tree_name": "rhel-8.6",
            "valid": true,
            "misc": {
                "kernel_version": "5.14.0-162.2.1.164.el9"
            }
        }
    ],
    "builds": [
        {
            "id": "bkr2kcidb:checkout_1_aarch64",
            "origin": "bkr2kcidb",
            "checkout_id": "bkr2kcidb:checkout_1",
            "architecture": "aarch64",
            "valid": true,
            "misc": {
                "package_name": "kernel"
            }
        }
    ],
    "tests": [
        {
            "id": "bkr2kcidb:checkout_1_aarch64_distribution_check-install_142494809",
            "origin": "bkr2kcidb",
            "build_id": "bkr2kcidb:checkout_1_aarch64",
            "comment": "/distribution/check-install",
            "path": "distribution_check-install",
            "start_time": "2022-04-09T01:02:41+00:00",
            "duration": 25,
            "output_files": [
                {
                    "name": "job_url",
                    "url": "https://jenkins/job/my_job/1"
                },
                {
                    "name": "brew_url",
                    "url": "https://brew/some_url"
                },
                {
                    "name": "harness.log",
                    "url": "https://beaker.engineering.redhat.com/recipes/11761758/tasks/142494809/logs/harness.log"
                },
                {
                    "name": "taskout.log",
                    "url": "https://beaker.engineering.redhat.com/recipes/11761758/tasks/142494809/logs/taskout.log"
                }
            ],
            "status": "PASS",
            "misc": {
                "results": [
                    {
                        "id": "bkr2kcidb:checkout_1_aarch64_distribution_check-install_142494809.1",
                        "name": "/distribution/check-install",
                        "status": "PASS",
                        "output_files": [
                            {
                                "name": "dmesg.log",
                                "url": "https://beaker.engineering.redhat.com/recipes/11761758/tasks/142494809/results/665482199/logs/dmesg.log"
                            },
                            {
                                "name": "avc.log",
                                "url": "https://beaker.engineering.redhat.com/recipes/11761758/tasks/142494809/results/665482199/logs/avc.log"
                            }
                        ]
                    },
                    {
                        "id": "bkr2kcidb:checkout_1_aarch64_distribution_check-install_142494809.2",
                        "name": "/distribution/check-install/Sysinfo",
                        "status": "PASS",
                        "output_files": [
                            {
                                "name": "avc.log",
                                "url": "https://beaker.engineering.redhat.com/recipes/11761758/tasks/142494809/results/665482205/logs/avc.log"
                            },
                            {
                                "name": "resultoutputfile.log",
                                "url": "https://beaker.engineering.redhat.com/recipes/11761758/tasks/142494809/results/665482205/logs/resultoutputfile.log"
                            }
                        ]
                    }
                ],
                "provenance": [
                    {
                        "function": "executor",
                        "url": "https://beaker.engineering.redhat.com/recipes/11761758",
                        "service_name": "beaker"
                    }
                ]
            }
        },
        {
            "id": "bkr2kcidb:checkout_1_aarch64_distribution_setup_repository_142494810",
            "origin": "bkr2kcidb",
            "build_id": "bkr2kcidb:checkout_1_aarch64",
            "comment": "/distribution/setup_repository",
            "path": "distribution_setup_repository",
            "start_time": "2022-04-09T01:03:06+00:00",
            "duration": 7,
            "output_files": [
                {
                    "name": "job_url",
                    "url": "https://jenkins/job/my_job/1"
                },
                {
                    "name": "brew_url",
                    "url": "https://brew/some_url"
                },
                {
                    "name": "setup_repository.log",
                    "url": "https://beaker.engineering.redhat.com/recipes/11761758/tasks/142494810/logs/setup_repository.log"
                },
                {
                    "name": "taskout.log",
                    "url": "https://beaker.engineering.redhat.com/recipes/11761758/tasks/142494810/logs/taskout.log"
                },
                {
                    "name": "harness.log",
                    "url": "https://beaker.engineering.redhat.com/recipes/11761758/tasks/142494810/logs/harness.log"
                }
            ],
            "status": "PASS",
            "misc": {
                "results": [
                    {
                        "id": "bkr2kcidb:checkout_1_aarch64_distribution_setup_repository_142494810.1",
                        "name": "/distribution/setup_repository",
                        "status": "PASS",
                        "output_files": [
                            {
                                "name": "avc.log",
                                "url": "https://beaker.engineering.redhat.com/recipes/11761758/tasks/142494810/results/665482228/logs/avc.log"
                            },
                            {
                                "name": "resultoutputfile.log",
                                "url": "https://beaker.engineering.redhat.com/recipes/11761758/tasks/142494810/results/665482228/logs/resultoutputfile.log"
                            }
                        ]
                    }
                ],
                "provenance": [
                    {
                        "function": "executor",
                        "url": "https://beaker.engineering.redhat.com/recipes/11761758",
                        "service_name": "beaker"
                    }
                ]
            }
        }
    ]
}
